[
	{
		"airport_size" : "medium",
		"wake" : "H",
		"REG" : 50,
		"CHT" : 50,
		"LCC" : 50,
		"FSC" : 50
	},
	{
		"airport_size" : "medium",
		"wake" : "M",
		"REG" : 15,
		"CHT" : 20,
		"LCC" : 20,
		"FSC" : 25
	},
	{
		"airport_size" : "medium",
		"wake" : "L",
		"REG" : 10,
		"CHT" : 10,
		"LCC" : 10,
		"FSC" : 10
	},
	{
		"airport_size" : "medium",
		"wake" : "J",
		"REG" : 50,
		"CHT" : 50,
		"LCC" : 50,
		"FSC" : 50
	},
	{
		"airport_size" : "large",
		"wake" : "H",
		"REG" : 50,
		"CHT" : 50,
		"LCC" : 50,
		"FSC" : 50
	},
	{
		"airport_size" : "large",
		"wake" : "M",
		"REG" : 25,
		"CHT" : 30,
		"LCC" : 20,
		"FSC" : 30
	},
	{
		"airport_size" : "large",
		"wake" : "L",
		"REG" : 10,
		"CHT" : 10,
		"LCC" : 10,
		"FSC" : 10
	},
	{
		"airport_size" : "large",
		"wake" : "J",
		"REG" : 50,
		"CHT" : 50,
		"LCC" : 50,
		"FSC" : 50
	},
	{
		"airport_size" : "small",
		"wake" : "H",
		"REG" : 45,
		"CHT" : 45,
		"LCC" : 45,
		"FSC" : 45
	},
	{
		"airport_size" : "small",
		"wake" : "M",
		"REG" : 15,
		"CHT" : 20,
		"LCC" : 20,
		"FSC" : 20
	},
	{
		"airport_size" : "small",
		"wake" : "L",
		"REG" : 10,
		"CHT" : 10,
		"LCC" : 10,
		"FSC" : 10
	},
	{
		"airport_size" : "small",
		"wake" : "J",
		"REG" : 45,
		"CHT" : 45,
		"LCC" : 45,
		"FSC" : 45
	}
]
